<svg width="914" height="960" viewBox="0 0 914 960" fill="none" xmlns="http://www.w3.org/2000/svg">
<g filter="url(#filter0_d)">
<rect x="4" y="46" width="906" height="906" rx="115" fill="#FFAB02"/>
</g>
<path d="M591.554 419.965C579.08 395.941 561.755 377.923 539.579 365.911C517.403 353.437 491.762 347.2 462.656 347.2C430.778 347.2 402.365 354.361 377.417 368.683C352.469 383.005 332.834 403.333 318.512 429.667C304.652 456.001 297.722 486.493 297.722 521.143C297.722 555.793 304.652 586.516 318.512 613.312C332.834 639.646 352.469 659.974 377.417 674.296C402.365 688.618 430.778 695.779 462.656 695.779C505.622 695.779 540.503 683.767 567.299 659.743C594.095 635.719 610.496 603.148 616.502 562.03H435.629V498.967H701.048V560.644C695.966 598.066 682.568 632.485 660.854 663.901C639.602 695.317 611.651 720.496 577.001 739.438C542.813 757.918 504.698 767.158 462.656 767.158C417.38 767.158 376.031 756.763 338.609 735.973C301.187 714.721 271.388 685.384 249.212 647.962C227.498 610.54 216.641 568.267 216.641 521.143C216.641 474.019 227.498 431.746 249.212 394.324C271.388 356.902 301.187 327.796 338.609 307.006C376.493 285.754 417.842 275.128 462.656 275.128C513.938 275.128 559.445 287.833 599.177 313.243C639.371 338.191 668.477 373.765 686.495 419.965H591.554Z" fill="white"/>
<line x1="114" y1="768.5" x2="801" y2="768.5" stroke="white" stroke-width="3"/>
<line x1="212.5" y1="870" x2="212.5" y2="255" stroke="white" stroke-width="3"/>
<defs>
<filter id="filter0_d" x="0" y="46" width="914" height="914" filterUnits="userSpaceOnUse" color-interpolation-filters="sRGB">
<feFlood flood-opacity="0" result="BackgroundImageFix"/>
<feColorMatrix in="SourceAlpha" type="matrix" values="0 0 0 0 0 0 0 0 0 0 0 0 0 0 0 0 0 0 127 0" result="hardAlpha"/>
<feOffset dy="4"/>
<feGaussianBlur stdDeviation="2"/>
<feComposite in2="hardAlpha" operator="out"/>
<feColorMatrix type="matrix" values="0 0 0 0 0 0 0 0 0 0 0 0 0 0 0 0 0 0 0.25 0"/>
<feBlend mode="normal" in2="BackgroundImageFix" result="effect1_dropShadow"/>
<feBlend mode="normal" in="SourceGraphic" in2="effect1_dropShadow" result="shape"/>
</filter>
</defs>
</svg>
